{
  "project_info": {
    "project_number": "80537232306",
    "firebase_url": "https://pintuuser-22715.firebaseio.com",
    "project_id": "pintuuser-22715",
    "storage_bucket": "pintuuser-22715.appspot.com"
  },
  "client": [
    {
      "client_info": {
        "mobilesdk_app_id": "1:80537232306:android:3f82079a0cba088001baab",
        "android_client_info": {
          "package_name": "com.knackspin.pintu"
        }
      },
      "oauth_client": [
        {
          "client_id": "80537232306-4jb90tg0a951en24s06fgi6mbp8b763e.apps.googleusercontent.com",
          "client_type": 3
        }
      ],
      "api_key": [
        {
          "current_key": "AIzaSyClpsUuAykn2rK_Q0TpHzc0av82OCUhDO8"
        }
      ],
      "services": {
        "appinvite_service": {
          "other_platform_oauth_client": [
            {
              "client_id": "80537232306-4jb90tg0a951en24s06fgi6mbp8b763e.apps.googleusercontent.com",
              "client_type": 3
            }
          ]
        }
      }
    }
  ],
  "configuration_version": "1"
}